{"frames": {

"CHICKEN1_NEUTRALLEFT/CHICKEN_NEUTRALLEFT.png":
{
	"frame": {"x":2,"y":1923,"w":134,"h":111},
	"rotated": false,
	"trimmed": true,
	"spriteSourceSize": {"x":36,"y":11,"w":134,"h":111},
	"sourceSize": {"w":200,"h":140},
	"pivot": {"x":0,"y":0}
},
"KITCHEN_WINDOW.png":
{
	"frame": {"x":382,"y":1310,"w":182,"h":181},
	"rotated": false,
	"trimmed": false,
	"spriteSourceSize": {"x":0,"y":0,"w":182,"h":181},
	"sourceSize": {"w":182,"h":181},
	"pivot": {"x":0,"y":0}
},
"duggee/DUGGEE_0001.png":
{
	"frame": {"x":189,"y":1380,"w":182,"h":233},
	"rotated": false,
	"trimmed": true,
	"spriteSourceSize": {"x":13,"y":51,"w":182,"h":233},
	"sourceSize": {"w":205,"h":290},
	"pivot": {"x":0,"y":0}
},
"duggee/DUGGEE_0002.png":
{
	"frame": {"x":1031,"y":506,"w":179,"h":232},
	"rotated": false,
	"trimmed": true,
	"spriteSourceSize": {"x":14,"y":52,"w":179,"h":232},
	"sourceSize": {"w":205,"h":290},
	"pivot": {"x":0,"y":0}
},
"duggee/DUGGEE_0003.png":
{
	"frame": {"x":1406,"y":501,"w":176,"h":232},
	"rotated": false,
	"trimmed": true,
	"spriteSourceSize": {"x":16,"y":52,"w":176,"h":232},
	"sourceSize": {"w":205,"h":290},
	"pivot": {"x":0,"y":0}
},
"duggee/DUGGEE_0004.png":
{
	"frame": {"x":965,"y":1064,"w":174,"h":232},
	"rotated": false,
	"trimmed": true,
	"spriteSourceSize": {"x":16,"y":52,"w":174,"h":232},
	"sourceSize": {"w":205,"h":290},
	"pivot": {"x":0,"y":0}
},
"duggee/DUGGEE_0005.png":
{
	"frame": {"x":1681,"y":1192,"w":172,"h":232},
	"rotated": false,
	"trimmed": true,
	"spriteSourceSize": {"x":17,"y":52,"w":172,"h":232},
	"sourceSize": {"w":205,"h":290},
	"pivot": {"x":0,"y":0}
},
"duggee/DUGGEE_0006.png":
{
	"frame": {"x":1860,"y":958,"w":172,"h":232},
	"rotated": false,
	"trimmed": true,
	"spriteSourceSize": {"x":17,"y":52,"w":172,"h":232},
	"sourceSize": {"w":205,"h":290},
	"pivot": {"x":0,"y":0}
},
"duggee/DUGGEE_0007.png":
{
	"frame": {"x":1316,"y":1210,"w":170,"h":232},
	"rotated": false,
	"trimmed": true,
	"spriteSourceSize": {"x":18,"y":52,"w":170,"h":232},
	"sourceSize": {"w":205,"h":290},
	"pivot": {"x":0,"y":0}
},
"duggee/DUGGEE_0008.png":
{
	"frame": {"x":1316,"y":1210,"w":170,"h":232},
	"rotated": false,
	"trimmed": true,
	"spriteSourceSize": {"x":18,"y":52,"w":170,"h":232},
	"sourceSize": {"w":205,"h":290},
	"pivot": {"x":0,"y":0}
},
"duggee/DUGGEE_0009.png":
{
	"frame": {"x":1316,"y":1210,"w":170,"h":232},
	"rotated": false,
	"trimmed": true,
	"spriteSourceSize": {"x":18,"y":52,"w":170,"h":232},
	"sourceSize": {"w":205,"h":290},
	"pivot": {"x":0,"y":0}
},
"duggee/DUGGEE_0010.png":
{
	"frame": {"x":1316,"y":1210,"w":170,"h":232},
	"rotated": false,
	"trimmed": true,
	"spriteSourceSize": {"x":18,"y":52,"w":170,"h":232},
	"sourceSize": {"w":205,"h":290},
	"pivot": {"x":0,"y":0}
},
"duggee/DUGGEE_0011.png":
{
	"frame": {"x":1316,"y":1210,"w":170,"h":232},
	"rotated": false,
	"trimmed": true,
	"spriteSourceSize": {"x":18,"y":52,"w":170,"h":232},
	"sourceSize": {"w":205,"h":290},
	"pivot": {"x":0,"y":0}
},
"duggee/DUGGEE_0012.png":
{
	"frame": {"x":1316,"y":1210,"w":170,"h":232},
	"rotated": false,
	"trimmed": true,
	"spriteSourceSize": {"x":18,"y":52,"w":170,"h":232},
	"sourceSize": {"w":205,"h":290},
	"pivot": {"x":0,"y":0}
},
"duggee/DUGGEE_0013.png":
{
	"frame": {"x":1661,"y":1426,"w":170,"h":232},
	"rotated": false,
	"trimmed": true,
	"spriteSourceSize": {"x":18,"y":52,"w":170,"h":232},
	"sourceSize": {"w":205,"h":290},
	"pivot": {"x":0,"y":0}
},
"duggee/DUGGEE_0014.png":
{
	"frame": {"x":1741,"y":264,"w":182,"h":232},
	"rotated": false,
	"trimmed": true,
	"spriteSourceSize": {"x":12,"y":52,"w":182,"h":232},
	"sourceSize": {"w":205,"h":290},
	"pivot": {"x":0,"y":0}
},
"duggee/DUGGEE_0015.png":
{
	"frame": {"x":578,"y":845,"w":189,"h":232},
	"rotated": false,
	"trimmed": true,
	"spriteSourceSize": {"x":9,"y":52,"w":189,"h":232},
	"sourceSize": {"w":205,"h":290},
	"pivot": {"x":0,"y":0}
},
"duggee/DUGGEE_0016.png":
{
	"frame": {"x":382,"y":1076,"w":191,"h":232},
	"rotated": false,
	"trimmed": true,
	"spriteSourceSize": {"x":8,"y":52,"w":191,"h":232},
	"sourceSize": {"w":205,"h":290},
	"pivot": {"x":0,"y":0}
},
"duggee/DUGGEE_0017.png":
{
	"frame": {"x":1360,"y":267,"w":192,"h":232},
	"rotated": false,
	"trimmed": true,
	"spriteSourceSize": {"x":7,"y":52,"w":192,"h":232},
	"sourceSize": {"w":205,"h":290},
	"pivot": {"x":0,"y":0}
},
"duggee/DUGGEE_0018.png":
{
	"frame": {"x":970,"y":271,"w":194,"h":233},
	"rotated": false,
	"trimmed": true,
	"spriteSourceSize": {"x":6,"y":51,"w":194,"h":233},
	"sourceSize": {"w":205,"h":290},
	"pivot": {"x":0,"y":0}
},
"duggee/DUGGEE_0019.png":
{
	"frame": {"x":186,"y":1651,"w":190,"h":233},
	"rotated": false,
	"trimmed": true,
	"spriteSourceSize": {"x":8,"y":51,"w":190,"h":233},
	"sourceSize": {"w":205,"h":290},
	"pivot": {"x":0,"y":0}
},
"duggee/DUGGEE_0020.png":
{
	"frame": {"x":197,"y":1115,"w":183,"h":233},
	"rotated": false,
	"trimmed": true,
	"spriteSourceSize": {"x":12,"y":51,"w":183,"h":233},
	"sourceSize": {"w":205,"h":290},
	"pivot": {"x":0,"y":0}
},
"duggee/DUGGEE_0021.png":
{
	"frame": {"x":562,"y":1493,"w":177,"h":233},
	"rotated": false,
	"trimmed": true,
	"spriteSourceSize": {"x":15,"y":51,"w":177,"h":233},
	"sourceSize": {"w":205,"h":290},
	"pivot": {"x":0,"y":0}
},
"duggee/DUGGEE_0022.png":
{
	"frame": {"x":1138,"y":740,"w":175,"h":233},
	"rotated": false,
	"trimmed": true,
	"spriteSourceSize": {"x":16,"y":51,"w":175,"h":233},
	"sourceSize": {"w":205,"h":290},
	"pivot": {"x":0,"y":0}
},
"duggee/DUGGEE_0023.png":
{
	"frame": {"x":1141,"y":975,"w":176,"h":233},
	"rotated": false,
	"trimmed": true,
	"spriteSourceSize": {"x":16,"y":51,"w":176,"h":233},
	"sourceSize": {"w":205,"h":290},
	"pivot": {"x":0,"y":0}
},
"duggee/DUGGEE_0024.png":
{
	"frame": {"x":562,"y":1728,"w":177,"h":233},
	"rotated": false,
	"trimmed": true,
	"spriteSourceSize": {"x":15,"y":51,"w":177,"h":233},
	"sourceSize": {"w":205,"h":290},
	"pivot": {"x":0,"y":0}
},
"duggee/DUGGEE_0025.png":
{
	"frame": {"x":1319,"y":969,"w":178,"h":233},
	"rotated": false,
	"trimmed": true,
	"spriteSourceSize": {"x":15,"y":51,"w":178,"h":233},
	"sourceSize": {"w":205,"h":290},
	"pivot": {"x":0,"y":0}
},
"duggee/DUGGEE_0026.png":
{
	"frame": {"x":1499,"y":806,"w":180,"h":233},
	"rotated": false,
	"trimmed": true,
	"spriteSourceSize": {"x":14,"y":51,"w":180,"h":233},
	"sourceSize": {"w":205,"h":290},
	"pivot": {"x":0,"y":0}
},
"duggee/DUGGEE_0027.png":
{
	"frame": {"x":189,"y":1380,"w":182,"h":233},
	"rotated": false,
	"trimmed": true,
	"spriteSourceSize": {"x":13,"y":51,"w":182,"h":233},
	"sourceSize": {"w":205,"h":290},
	"pivot": {"x":0,"y":0}
},
"duggee/DUGGEE_0028.png":
{
	"frame": {"x":378,"y":1493,"w":182,"h":232},
	"rotated": false,
	"trimmed": true,
	"spriteSourceSize": {"x":13,"y":52,"w":182,"h":232},
	"sourceSize": {"w":205,"h":290},
	"pivot": {"x":0,"y":0}
},
"duggee/DUGGEE_0029.png":
{
	"frame": {"x":1554,"y":261,"w":185,"h":231},
	"rotated": false,
	"trimmed": true,
	"spriteSourceSize": {"x":12,"y":53,"w":185,"h":231},
	"sourceSize": {"w":205,"h":290},
	"pivot": {"x":0,"y":0}
},
"duggee/DUGGEE_0030.png":
{
	"frame": {"x":773,"y":1064,"w":190,"h":230},
	"rotated": false,
	"trimmed": true,
	"spriteSourceSize": {"x":9,"y":54,"w":190,"h":230},
	"sourceSize": {"w":205,"h":290},
	"pivot": {"x":0,"y":0}
},
"duggee/DUGGEE_0031.png":
{
	"frame": {"x":575,"y":1079,"w":196,"h":228},
	"rotated": false,
	"trimmed": true,
	"spriteSourceSize": {"x":5,"y":56,"w":196,"h":228},
	"sourceSize": {"w":205,"h":290},
	"pivot": {"x":0,"y":0}
},
"duggee/DUGGEE_0032.png":
{
	"frame": {"x":1212,"y":501,"w":192,"h":227},
	"rotated": false,
	"trimmed": true,
	"spriteSourceSize": {"x":9,"y":57,"w":192,"h":227},
	"sourceSize": {"w":205,"h":290},
	"pivot": {"x":0,"y":0}
},
"duggee/DUGGEE_0033.png":
{
	"frame": {"x":1212,"y":501,"w":192,"h":227},
	"rotated": false,
	"trimmed": true,
	"spriteSourceSize": {"x":9,"y":57,"w":192,"h":227},
	"sourceSize": {"w":205,"h":290},
	"pivot": {"x":0,"y":0}
},
"duggee/DUGGEE_0034.png":
{
	"frame": {"x":769,"y":831,"w":191,"h":231},
	"rotated": false,
	"trimmed": true,
	"spriteSourceSize": {"x":10,"y":53,"w":191,"h":231},
	"sourceSize": {"w":205,"h":290},
	"pivot": {"x":0,"y":0}
},
"duggee/DUGGEE_0035.png":
{
	"frame": {"x":1166,"y":262,"w":192,"h":233},
	"rotated": false,
	"trimmed": true,
	"spriteSourceSize": {"x":9,"y":51,"w":192,"h":233},
	"sourceSize": {"w":205,"h":290},
	"pivot": {"x":0,"y":0}
},
"duggee/DUGGEE_0036.png":
{
	"frame": {"x":382,"y":839,"w":194,"h":235},
	"rotated": false,
	"trimmed": true,
	"spriteSourceSize": {"x":6,"y":49,"w":194,"h":235},
	"sourceSize": {"w":205,"h":290},
	"pivot": {"x":0,"y":0}
},
"duggee/DUGGEE_0037.png":
{
	"frame": {"x":382,"y":602,"w":196,"h":235},
	"rotated": false,
	"trimmed": true,
	"spriteSourceSize": {"x":4,"y":49,"w":196,"h":235},
	"sourceSize": {"w":205,"h":290},
	"pivot": {"x":0,"y":0}
},
"duggee/DUGGEE_0038.png":
{
	"frame": {"x":775,"y":278,"w":193,"h":234},
	"rotated": false,
	"trimmed": true,
	"spriteSourceSize": {"x":7,"y":50,"w":193,"h":234},
	"sourceSize": {"w":205,"h":290},
	"pivot": {"x":0,"y":0}
},
"duggee/DUGGEE_0039.png":
{
	"frame": {"x":1180,"y":2,"w":185,"h":258},
	"rotated": false,
	"trimmed": true,
	"spriteSourceSize": {"x":15,"y":26,"w":185,"h":258},
	"sourceSize": {"w":205,"h":290},
	"pivot": {"x":0,"y":0}
},
"duggee/DUGGEE_0040.png":
{
	"frame": {"x":2,"y":1651,"w":182,"h":270},
	"rotated": false,
	"trimmed": true,
	"spriteSourceSize": {"x":18,"y":14,"w":182,"h":270},
	"sourceSize": {"w":205,"h":290},
	"pivot": {"x":0,"y":0}
},
"duggee/DUGGEE_0041.png":
{
	"frame": {"x":2,"y":2,"w":194,"h":277},
	"rotated": false,
	"trimmed": true,
	"spriteSourceSize": {"x":6,"y":7,"w":194,"h":277},
	"sourceSize": {"w":205,"h":290},
	"pivot": {"x":0,"y":0}
},
"duggee/DUGGEE_0042.png":
{
	"frame": {"x":2,"y":560,"w":194,"h":276},
	"rotated": false,
	"trimmed": true,
	"spriteSourceSize": {"x":6,"y":8,"w":194,"h":276},
	"sourceSize": {"w":205,"h":290},
	"pivot": {"x":0,"y":0}
},
"duggee/DUGGEE_0043.png":
{
	"frame": {"x":394,"y":2,"w":196,"h":274},
	"rotated": false,
	"trimmed": true,
	"spriteSourceSize": {"x":4,"y":10,"w":196,"h":274},
	"sourceSize": {"w":205,"h":290},
	"pivot": {"x":0,"y":0}
},
"duggee/DUGGEE_0044.png":
{
	"frame": {"x":790,"y":2,"w":193,"h":267},
	"rotated": false,
	"trimmed": true,
	"spriteSourceSize": {"x":7,"y":17,"w":193,"h":267},
	"sourceSize": {"w":205,"h":290},
	"pivot": {"x":0,"y":0}
},
"duggee/DUGGEE_0045.png":
{
	"frame": {"x":2,"y":1380,"w":185,"h":269},
	"rotated": false,
	"trimmed": true,
	"spriteSourceSize": {"x":15,"y":15,"w":185,"h":269},
	"sourceSize": {"w":205,"h":290},
	"pivot": {"x":0,"y":0}
},
"duggee/DUGGEE_0046.png":
{
	"frame": {"x":198,"y":558,"w":182,"h":274},
	"rotated": false,
	"trimmed": true,
	"spriteSourceSize": {"x":18,"y":10,"w":182,"h":274},
	"sourceSize": {"w":205,"h":290},
	"pivot": {"x":0,"y":0}
},
"duggee/DUGGEE_0047.png":
{
	"frame": {"x":2,"y":281,"w":194,"h":277},
	"rotated": false,
	"trimmed": true,
	"spriteSourceSize": {"x":6,"y":7,"w":194,"h":277},
	"sourceSize": {"w":205,"h":290},
	"pivot": {"x":0,"y":0}
},
"duggee/DUGGEE_0048.png":
{
	"frame": {"x":198,"y":281,"w":194,"h":275},
	"rotated": false,
	"trimmed": true,
	"spriteSourceSize": {"x":6,"y":9,"w":194,"h":275},
	"sourceSize": {"w":205,"h":290},
	"pivot": {"x":0,"y":0}
},
"duggee/DUGGEE_0049.png":
{
	"frame": {"x":394,"y":278,"w":195,"h":274},
	"rotated": false,
	"trimmed": true,
	"spriteSourceSize": {"x":5,"y":10,"w":195,"h":274},
	"sourceSize": {"w":205,"h":290},
	"pivot": {"x":0,"y":0}
},
"duggee/DUGGEE_0050.png":
{
	"frame": {"x":985,"y":2,"w":193,"h":255},
	"rotated": false,
	"trimmed": true,
	"spriteSourceSize": {"x":7,"y":29,"w":193,"h":255},
	"sourceSize": {"w":205,"h":290},
	"pivot": {"x":0,"y":0}
},
"duggee/DUGGEE_0051.png":
{
	"frame": {"x":1367,"y":2,"w":185,"h":263},
	"rotated": false,
	"trimmed": true,
	"spriteSourceSize": {"x":15,"y":21,"w":185,"h":263},
	"sourceSize": {"w":205,"h":290},
	"pivot": {"x":0,"y":0}
},
"duggee/DUGGEE_0052.png":
{
	"frame": {"x":591,"y":278,"w":182,"h":274},
	"rotated": false,
	"trimmed": true,
	"spriteSourceSize": {"x":18,"y":10,"w":182,"h":274},
	"sourceSize": {"w":205,"h":290},
	"pivot": {"x":0,"y":0}
},
"duggee/DUGGEE_0053.png":
{
	"frame": {"x":198,"y":2,"w":194,"h":277},
	"rotated": false,
	"trimmed": true,
	"spriteSourceSize": {"x":6,"y":7,"w":194,"h":277},
	"sourceSize": {"w":205,"h":290},
	"pivot": {"x":0,"y":0}
},
"duggee/DUGGEE_0054.png":
{
	"frame": {"x":2,"y":838,"w":194,"h":275},
	"rotated": false,
	"trimmed": true,
	"spriteSourceSize": {"x":6,"y":9,"w":194,"h":275},
	"sourceSize": {"w":205,"h":290},
	"pivot": {"x":0,"y":0}
},
"duggee/DUGGEE_0055.png":
{
	"frame": {"x":592,"y":2,"w":196,"h":274},
	"rotated": false,
	"trimmed": true,
	"spriteSourceSize": {"x":4,"y":10,"w":196,"h":274},
	"sourceSize": {"w":205,"h":290},
	"pivot": {"x":0,"y":0}
},
"duggee/DUGGEE_0056.png":
{
	"frame": {"x":2,"y":1115,"w":193,"h":263},
	"rotated": false,
	"trimmed": true,
	"spriteSourceSize": {"x":7,"y":21,"w":193,"h":263},
	"sourceSize": {"w":205,"h":290},
	"pivot": {"x":0,"y":0}
},
"duggee/DUGGEE_0057.png":
{
	"frame": {"x":1554,"y":2,"w":185,"h":257},
	"rotated": false,
	"trimmed": true,
	"spriteSourceSize": {"x":15,"y":27,"w":185,"h":257},
	"sourceSize": {"w":205,"h":290},
	"pivot": {"x":0,"y":0}
},
"duggee/DUGGEE_0058.png":
{
	"frame": {"x":2,"y":2,"w":194,"h":277},
	"rotated": false,
	"trimmed": true,
	"spriteSourceSize": {"x":6,"y":7,"w":194,"h":277},
	"sourceSize": {"w":205,"h":290},
	"pivot": {"x":0,"y":0}
},
"duggee/DUGGEE_0059.png":
{
	"frame": {"x":2,"y":560,"w":194,"h":276},
	"rotated": false,
	"trimmed": true,
	"spriteSourceSize": {"x":6,"y":8,"w":194,"h":276},
	"sourceSize": {"w":205,"h":290},
	"pivot": {"x":0,"y":0}
},
"duggee/DUGGEE_0060.png":
{
	"frame": {"x":394,"y":2,"w":196,"h":274},
	"rotated": false,
	"trimmed": true,
	"spriteSourceSize": {"x":4,"y":10,"w":196,"h":274},
	"sourceSize": {"w":205,"h":290},
	"pivot": {"x":0,"y":0}
},
"duggee/DUGGEE_0061.png":
{
	"frame": {"x":790,"y":2,"w":193,"h":267},
	"rotated": false,
	"trimmed": true,
	"spriteSourceSize": {"x":7,"y":17,"w":193,"h":267},
	"sourceSize": {"w":205,"h":290},
	"pivot": {"x":0,"y":0}
},
"duggee/DUGGEE_0062.png":
{
	"frame": {"x":2,"y":1380,"w":185,"h":269},
	"rotated": false,
	"trimmed": true,
	"spriteSourceSize": {"x":15,"y":15,"w":185,"h":269},
	"sourceSize": {"w":205,"h":290},
	"pivot": {"x":0,"y":0}
},
"duggee/DUGGEE_0063.png":
{
	"frame": {"x":198,"y":558,"w":182,"h":274},
	"rotated": false,
	"trimmed": true,
	"spriteSourceSize": {"x":18,"y":10,"w":182,"h":274},
	"sourceSize": {"w":205,"h":290},
	"pivot": {"x":0,"y":0}
},
"duggee/DUGGEE_0064.png":
{
	"frame": {"x":2,"y":281,"w":194,"h":277},
	"rotated": false,
	"trimmed": true,
	"spriteSourceSize": {"x":6,"y":7,"w":194,"h":277},
	"sourceSize": {"w":205,"h":290},
	"pivot": {"x":0,"y":0}
},
"duggee/DUGGEE_0065.png":
{
	"frame": {"x":198,"y":281,"w":194,"h":275},
	"rotated": false,
	"trimmed": true,
	"spriteSourceSize": {"x":6,"y":9,"w":194,"h":275},
	"sourceSize": {"w":205,"h":290},
	"pivot": {"x":0,"y":0}
},
"duggee/DUGGEE_0066.png":
{
	"frame": {"x":394,"y":278,"w":195,"h":274},
	"rotated": false,
	"trimmed": true,
	"spriteSourceSize": {"x":5,"y":10,"w":195,"h":274},
	"sourceSize": {"w":205,"h":290},
	"pivot": {"x":0,"y":0}
},
"duggee/DUGGEE_0067.png":
{
	"frame": {"x":985,"y":2,"w":193,"h":255},
	"rotated": false,
	"trimmed": true,
	"spriteSourceSize": {"x":7,"y":29,"w":193,"h":255},
	"sourceSize": {"w":205,"h":290},
	"pivot": {"x":0,"y":0}
},
"duggee/DUGGEE_0068.png":
{
	"frame": {"x":1367,"y":2,"w":185,"h":263},
	"rotated": false,
	"trimmed": true,
	"spriteSourceSize": {"x":15,"y":21,"w":185,"h":263},
	"sourceSize": {"w":205,"h":290},
	"pivot": {"x":0,"y":0}
},
"duggee/DUGGEE_0069.png":
{
	"frame": {"x":591,"y":278,"w":182,"h":274},
	"rotated": false,
	"trimmed": true,
	"spriteSourceSize": {"x":18,"y":10,"w":182,"h":274},
	"sourceSize": {"w":205,"h":290},
	"pivot": {"x":0,"y":0}
},
"duggee/DUGGEE_0070.png":
{
	"frame": {"x":198,"y":2,"w":194,"h":277},
	"rotated": false,
	"trimmed": true,
	"spriteSourceSize": {"x":6,"y":7,"w":194,"h":277},
	"sourceSize": {"w":205,"h":290},
	"pivot": {"x":0,"y":0}
},
"duggee/DUGGEE_0071.png":
{
	"frame": {"x":2,"y":838,"w":194,"h":275},
	"rotated": false,
	"trimmed": true,
	"spriteSourceSize": {"x":6,"y":9,"w":194,"h":275},
	"sourceSize": {"w":205,"h":290},
	"pivot": {"x":0,"y":0}
},
"duggee/DUGGEE_0072.png":
{
	"frame": {"x":592,"y":2,"w":196,"h":274},
	"rotated": false,
	"trimmed": true,
	"spriteSourceSize": {"x":4,"y":10,"w":196,"h":274},
	"sourceSize": {"w":205,"h":290},
	"pivot": {"x":0,"y":0}
},
"duggee/DUGGEE_0073.png":
{
	"frame": {"x":2,"y":1115,"w":193,"h":263},
	"rotated": false,
	"trimmed": true,
	"spriteSourceSize": {"x":7,"y":21,"w":193,"h":263},
	"sourceSize": {"w":205,"h":290},
	"pivot": {"x":0,"y":0}
},
"duggee/DUGGEE_0074.png":
{
	"frame": {"x":1554,"y":2,"w":185,"h":257},
	"rotated": false,
	"trimmed": true,
	"spriteSourceSize": {"x":15,"y":27,"w":185,"h":257},
	"sourceSize": {"w":205,"h":290},
	"pivot": {"x":0,"y":0}
},
"duggee/DUGGEE_0075.png":
{
	"frame": {"x":2,"y":2,"w":194,"h":277},
	"rotated": false,
	"trimmed": true,
	"spriteSourceSize": {"x":6,"y":7,"w":194,"h":277},
	"sourceSize": {"w":205,"h":290},
	"pivot": {"x":0,"y":0}
},
"duggee/DUGGEE_0076.png":
{
	"frame": {"x":2,"y":560,"w":194,"h":276},
	"rotated": false,
	"trimmed": true,
	"spriteSourceSize": {"x":6,"y":8,"w":194,"h":276},
	"sourceSize": {"w":205,"h":290},
	"pivot": {"x":0,"y":0}
},
"duggee/DUGGEE_0077.png":
{
	"frame": {"x":394,"y":2,"w":196,"h":274},
	"rotated": false,
	"trimmed": true,
	"spriteSourceSize": {"x":4,"y":10,"w":196,"h":274},
	"sourceSize": {"w":205,"h":290},
	"pivot": {"x":0,"y":0}
},
"duggee/DUGGEE_0078.png":
{
	"frame": {"x":790,"y":2,"w":193,"h":267},
	"rotated": false,
	"trimmed": true,
	"spriteSourceSize": {"x":7,"y":17,"w":193,"h":267},
	"sourceSize": {"w":205,"h":290},
	"pivot": {"x":0,"y":0}
},
"duggee/DUGGEE_0079.png":
{
	"frame": {"x":2,"y":1380,"w":185,"h":269},
	"rotated": false,
	"trimmed": true,
	"spriteSourceSize": {"x":15,"y":15,"w":185,"h":269},
	"sourceSize": {"w":205,"h":290},
	"pivot": {"x":0,"y":0}
},
"duggee/DUGGEE_0080.png":
{
	"frame": {"x":198,"y":558,"w":182,"h":274},
	"rotated": false,
	"trimmed": true,
	"spriteSourceSize": {"x":18,"y":10,"w":182,"h":274},
	"sourceSize": {"w":205,"h":290},
	"pivot": {"x":0,"y":0}
},
"duggee/DUGGEE_0081.png":
{
	"frame": {"x":2,"y":281,"w":194,"h":277},
	"rotated": false,
	"trimmed": true,
	"spriteSourceSize": {"x":6,"y":7,"w":194,"h":277},
	"sourceSize": {"w":205,"h":290},
	"pivot": {"x":0,"y":0}
},
"duggee/DUGGEE_0082.png":
{
	"frame": {"x":198,"y":281,"w":194,"h":275},
	"rotated": false,
	"trimmed": true,
	"spriteSourceSize": {"x":6,"y":9,"w":194,"h":275},
	"sourceSize": {"w":205,"h":290},
	"pivot": {"x":0,"y":0}
},
"duggee/DUGGEE_0083.png":
{
	"frame": {"x":394,"y":278,"w":195,"h":274},
	"rotated": false,
	"trimmed": true,
	"spriteSourceSize": {"x":5,"y":10,"w":195,"h":274},
	"sourceSize": {"w":205,"h":290},
	"pivot": {"x":0,"y":0}
},
"duggee/DUGGEE_0084.png":
{
	"frame": {"x":985,"y":2,"w":193,"h":255},
	"rotated": false,
	"trimmed": true,
	"spriteSourceSize": {"x":7,"y":29,"w":193,"h":255},
	"sourceSize": {"w":205,"h":290},
	"pivot": {"x":0,"y":0}
},
"duggee/DUGGEE_0085.png":
{
	"frame": {"x":1367,"y":2,"w":185,"h":263},
	"rotated": false,
	"trimmed": true,
	"spriteSourceSize": {"x":15,"y":21,"w":185,"h":263},
	"sourceSize": {"w":205,"h":290},
	"pivot": {"x":0,"y":0}
},
"duggee/DUGGEE_0086.png":
{
	"frame": {"x":591,"y":278,"w":182,"h":274},
	"rotated": false,
	"trimmed": true,
	"spriteSourceSize": {"x":18,"y":10,"w":182,"h":274},
	"sourceSize": {"w":205,"h":290},
	"pivot": {"x":0,"y":0}
},
"duggee/DUGGEE_0087.png":
{
	"frame": {"x":198,"y":2,"w":194,"h":277},
	"rotated": false,
	"trimmed": true,
	"spriteSourceSize": {"x":6,"y":7,"w":194,"h":277},
	"sourceSize": {"w":205,"h":290},
	"pivot": {"x":0,"y":0}
},
"duggee/DUGGEE_0088.png":
{
	"frame": {"x":2,"y":838,"w":194,"h":275},
	"rotated": false,
	"trimmed": true,
	"spriteSourceSize": {"x":6,"y":9,"w":194,"h":275},
	"sourceSize": {"w":205,"h":290},
	"pivot": {"x":0,"y":0}
},
"duggee/DUGGEE_0089.png":
{
	"frame": {"x":592,"y":2,"w":196,"h":274},
	"rotated": false,
	"trimmed": true,
	"spriteSourceSize": {"x":4,"y":10,"w":196,"h":274},
	"sourceSize": {"w":205,"h":290},
	"pivot": {"x":0,"y":0}
},
"duggee/DUGGEE_0090.png":
{
	"frame": {"x":2,"y":1115,"w":193,"h":263},
	"rotated": false,
	"trimmed": true,
	"spriteSourceSize": {"x":7,"y":21,"w":193,"h":263},
	"sourceSize": {"w":205,"h":290},
	"pivot": {"x":0,"y":0}
},
"duggee/DUGGEE_0091.png":
{
	"frame": {"x":1554,"y":2,"w":185,"h":257},
	"rotated": false,
	"trimmed": true,
	"spriteSourceSize": {"x":15,"y":27,"w":185,"h":257},
	"sourceSize": {"w":205,"h":290},
	"pivot": {"x":0,"y":0}
},
"duggee/DUGGEE_0092.png":
{
	"frame": {"x":198,"y":834,"w":182,"h":273},
	"rotated": false,
	"trimmed": true,
	"spriteSourceSize": {"x":18,"y":11,"w":182,"h":273},
	"sourceSize": {"w":205,"h":290},
	"pivot": {"x":0,"y":0}
},
"duggee/DUGGEE_0093.png":
{
	"frame": {"x":1741,"y":2,"w":182,"h":260},
	"rotated": false,
	"trimmed": true,
	"spriteSourceSize": {"x":18,"y":24,"w":182,"h":260},
	"sourceSize": {"w":205,"h":290},
	"pivot": {"x":0,"y":0}
},
"duggee/DUGGEE_0094.png":
{
	"frame": {"x":580,"y":602,"w":184,"h":241},
	"rotated": false,
	"trimmed": true,
	"spriteSourceSize": {"x":17,"y":43,"w":184,"h":241},
	"sourceSize": {"w":205,"h":290},
	"pivot": {"x":0,"y":0}
},
"duggee/DUGGEE_0095.png":
{
	"frame": {"x":1694,"y":727,"w":187,"h":229},
	"rotated": false,
	"trimmed": true,
	"spriteSourceSize": {"x":14,"y":55,"w":187,"h":229},
	"sourceSize": {"w":205,"h":290},
	"pivot": {"x":0,"y":0}
},
"duggee/DUGGEE_0096.png":
{
	"frame": {"x":1694,"y":498,"w":192,"h":227},
	"rotated": false,
	"trimmed": true,
	"spriteSourceSize": {"x":9,"y":57,"w":192,"h":227},
	"sourceSize": {"w":205,"h":290},
	"pivot": {"x":0,"y":0}
},
"duggee/DUGGEE_0097.png":
{
	"frame": {"x":378,"y":1727,"w":182,"h":229},
	"rotated": false,
	"trimmed": true,
	"spriteSourceSize": {"x":14,"y":55,"w":182,"h":229},
	"sourceSize": {"w":205,"h":290},
	"pivot": {"x":0,"y":0}
},
"duggee/DUGGEE_0098.png":
{
	"frame": {"x":962,"y":831,"w":174,"h":231},
	"rotated": false,
	"trimmed": true,
	"spriteSourceSize": {"x":17,"y":53,"w":174,"h":231},
	"sourceSize": {"w":205,"h":290},
	"pivot": {"x":0,"y":0}
},
"duggee/DUGGEE_0099.png":
{
	"frame": {"x":1855,"y":1192,"w":171,"h":232},
	"rotated": false,
	"trimmed": true,
	"spriteSourceSize": {"x":18,"y":52,"w":171,"h":232},
	"sourceSize": {"w":205,"h":290},
	"pivot": {"x":0,"y":0}
},
"duggee/DUGGEE_0100.png":
{
	"frame": {"x":1833,"y":1426,"w":170,"h":232},
	"rotated": false,
	"trimmed": true,
	"spriteSourceSize": {"x":18,"y":52,"w":170,"h":232},
	"sourceSize": {"w":205,"h":290},
	"pivot": {"x":0,"y":0}
},
"duggee/DUGGEE_0101.png":
{
	"frame": {"x":1488,"y":1275,"w":171,"h":232},
	"rotated": false,
	"trimmed": true,
	"spriteSourceSize": {"x":18,"y":52,"w":171,"h":232},
	"sourceSize": {"w":205,"h":290},
	"pivot": {"x":0,"y":0}
},
"duggee/DUGGEE_0102.png":
{
	"frame": {"x":1141,"y":1210,"w":173,"h":232},
	"rotated": false,
	"trimmed": true,
	"spriteSourceSize": {"x":17,"y":52,"w":173,"h":232},
	"sourceSize": {"w":205,"h":290},
	"pivot": {"x":0,"y":0}
},
"duggee/DUGGEE_0103.png":
{
	"frame": {"x":1681,"y":958,"w":177,"h":232},
	"rotated": false,
	"trimmed": true,
	"spriteSourceSize": {"x":15,"y":52,"w":177,"h":232},
	"sourceSize": {"w":205,"h":290},
	"pivot": {"x":0,"y":0}
},
"duggee/DUGGEE_0104.png":
{
	"frame": {"x":1499,"y":1041,"w":180,"h":232},
	"rotated": false,
	"trimmed": true,
	"spriteSourceSize": {"x":14,"y":52,"w":180,"h":232},
	"sourceSize": {"w":205,"h":290},
	"pivot": {"x":0,"y":0}
},
"duggee/DUGGEE_0105.png":
{
	"frame": {"x":1315,"y":735,"w":182,"h":232},
	"rotated": false,
	"trimmed": true,
	"spriteSourceSize": {"x":13,"y":52,"w":182,"h":232},
	"sourceSize": {"w":205,"h":290},
	"pivot": {"x":0,"y":0}
},
"duggee/DUGGEE_0106.png":
{
	"frame": {"x":1315,"y":735,"w":182,"h":232},
	"rotated": false,
	"trimmed": true,
	"spriteSourceSize": {"x":13,"y":52,"w":182,"h":232},
	"sourceSize": {"w":205,"h":290},
	"pivot": {"x":0,"y":0}
},
"duggee/DUGGEE_0107.png":
{
	"frame": {"x":1315,"y":735,"w":182,"h":232},
	"rotated": false,
	"trimmed": true,
	"spriteSourceSize": {"x":13,"y":52,"w":182,"h":232},
	"sourceSize": {"w":205,"h":290},
	"pivot": {"x":0,"y":0}
},
"duggee/DUGGEE_0108.png":
{
	"frame": {"x":1315,"y":735,"w":182,"h":232},
	"rotated": false,
	"trimmed": true,
	"spriteSourceSize": {"x":13,"y":52,"w":182,"h":232},
	"sourceSize": {"w":205,"h":290},
	"pivot": {"x":0,"y":0}
},
"hide-and-seek/pond.png":
{
	"frame": {"x":394,"y":554,"w":344,"h":46},
	"rotated": false,
	"trimmed": false,
	"spriteSourceSize": {"x":0,"y":0,"w":344,"h":46},
	"sourceSize": {"w":344,"h":46},
	"pivot": {"x":0,"y":0}
},
"hide-and-seek/rocks.png":
{
	"frame": {"x":775,"y":514,"w":254,"h":174},
	"rotated": false,
	"trimmed": false,
	"spriteSourceSize": {"x":0,"y":0,"w":254,"h":174},
	"sourceSize": {"w":254,"h":174},
	"pivot": {"x":0,"y":0}
},
"hide-and-seek/teepee.png":
{
	"frame": {"x":766,"y":690,"w":227,"h":139},
	"rotated": false,
	"trimmed": false,
	"spriteSourceSize": {"x":0,"y":0,"w":227,"h":139},
	"sourceSize": {"w":227,"h":139},
	"pivot": {"x":0,"y":0}
},
"sheep/SHEEP_gameplay0001.png":
{
	"frame": {"x":1888,"y":659,"w":109,"h":104},
	"rotated": false,
	"trimmed": true,
	"spriteSourceSize": {"x":13,"y":62,"w":109,"h":104},
	"sourceSize": {"w":125,"h":168},
	"pivot": {"x":0,"y":0}
},
"sheep/SHEEP_gameplay0002.png":
{
	"frame": {"x":741,"y":1794,"w":109,"h":104},
	"rotated": false,
	"trimmed": true,
	"spriteSourceSize": {"x":13,"y":62,"w":109,"h":104},
	"sourceSize": {"w":125,"h":168},
	"pivot": {"x":0,"y":0}
},
"sheep/SHEEP_gameplay0003.png":
{
	"frame": {"x":741,"y":1900,"w":109,"h":104},
	"rotated": false,
	"trimmed": true,
	"spriteSourceSize": {"x":13,"y":62,"w":109,"h":104},
	"sourceSize": {"w":125,"h":168},
	"pivot": {"x":0,"y":0}
},
"sheep/SHEEP_gameplay0004.png":
{
	"frame": {"x":741,"y":1900,"w":109,"h":104},
	"rotated": false,
	"trimmed": true,
	"spriteSourceSize": {"x":13,"y":62,"w":109,"h":104},
	"sourceSize": {"w":125,"h":168},
	"pivot": {"x":0,"y":0}
},
"sheep/SHEEP_gameplay0005.png":
{
	"frame": {"x":741,"y":1900,"w":109,"h":104},
	"rotated": false,
	"trimmed": true,
	"spriteSourceSize": {"x":13,"y":62,"w":109,"h":104},
	"sourceSize": {"w":125,"h":168},
	"pivot": {"x":0,"y":0}
},
"sheep/SHEEP_gameplay0006.png":
{
	"frame": {"x":741,"y":1794,"w":109,"h":104},
	"rotated": false,
	"trimmed": true,
	"spriteSourceSize": {"x":13,"y":62,"w":109,"h":104},
	"sourceSize": {"w":125,"h":168},
	"pivot": {"x":0,"y":0}
},
"sheep/SHEEP_gameplay0007.png":
{
	"frame": {"x":1888,"y":659,"w":109,"h":104},
	"rotated": false,
	"trimmed": true,
	"spriteSourceSize": {"x":13,"y":62,"w":109,"h":104},
	"sourceSize": {"w":125,"h":168},
	"pivot": {"x":0,"y":0}
},
"sheep/SHEEP_gameplay0008.png":
{
	"frame": {"x":1006,"y":1404,"w":118,"h":97},
	"rotated": false,
	"trimmed": true,
	"spriteSourceSize": {"x":5,"y":69,"w":118,"h":97},
	"sourceSize": {"w":125,"h":168},
	"pivot": {"x":0,"y":0}
},
"sheep/SHEEP_gameplay0009.png":
{
	"frame": {"x":1912,"y":1660,"w":122,"h":94},
	"rotated": false,
	"trimmed": true,
	"spriteSourceSize": {"x":2,"y":72,"w":122,"h":94},
	"sourceSize": {"w":125,"h":168},
	"pivot": {"x":0,"y":0}
},
"sheep/SHEEP_gameplay0010.png":
{
	"frame": {"x":1245,"y":1857,"w":122,"h":95},
	"rotated": false,
	"trimmed": true,
	"spriteSourceSize": {"x":2,"y":71,"w":122,"h":95},
	"sourceSize": {"w":125,"h":168},
	"pivot": {"x":0,"y":0}
},
"sheep/SHEEP_gameplay0011.png":
{
	"frame": {"x":852,"y":1453,"w":113,"h":104},
	"rotated": false,
	"trimmed": true,
	"spriteSourceSize": {"x":10,"y":62,"w":113,"h":104},
	"sourceSize": {"w":125,"h":168},
	"pivot": {"x":0,"y":0}
},
"sheep/SHEEP_gameplay0012.png":
{
	"frame": {"x":1584,"y":655,"w":108,"h":149},
	"rotated": false,
	"trimmed": true,
	"spriteSourceSize": {"x":13,"y":17,"w":108,"h":149},
	"sourceSize": {"w":125,"h":168},
	"pivot": {"x":0,"y":0}
},
"sheep/SHEEP_gameplay0013.png":
{
	"frame": {"x":676,"y":1309,"w":108,"h":157},
	"rotated": false,
	"trimmed": true,
	"spriteSourceSize": {"x":13,"y":9,"w":108,"h":157},
	"sourceSize": {"w":125,"h":168},
	"pivot": {"x":0,"y":0}
},
"sheep/SHEEP_gameplay0014.png":
{
	"frame": {"x":1925,"y":326,"w":108,"h":159},
	"rotated": false,
	"trimmed": true,
	"spriteSourceSize": {"x":13,"y":7,"w":108,"h":159},
	"sourceSize": {"w":125,"h":168},
	"pivot": {"x":0,"y":0}
},
"sheep/SHEEP_gameplay0015.png":
{
	"frame": {"x":1584,"y":494,"w":108,"h":159},
	"rotated": false,
	"trimmed": true,
	"spriteSourceSize": {"x":13,"y":7,"w":108,"h":159},
	"sourceSize": {"w":125,"h":168},
	"pivot": {"x":0,"y":0}
},
"sheep/SHEEP_gameplay0016.png":
{
	"frame": {"x":1925,"y":2,"w":108,"h":160},
	"rotated": false,
	"trimmed": true,
	"spriteSourceSize": {"x":13,"y":6,"w":108,"h":160},
	"sourceSize": {"w":125,"h":168},
	"pivot": {"x":0,"y":0}
},
"sheep/SHEEP_gameplay0017.png":
{
	"frame": {"x":1925,"y":164,"w":108,"h":160},
	"rotated": false,
	"trimmed": true,
	"spriteSourceSize": {"x":13,"y":6,"w":108,"h":160},
	"sourceSize": {"w":125,"h":168},
	"pivot": {"x":0,"y":0}
},
"sheep/SHEEP_gameplay0018.png":
{
	"frame": {"x":1888,"y":498,"w":108,"h":159},
	"rotated": false,
	"trimmed": true,
	"spriteSourceSize": {"x":13,"y":7,"w":108,"h":159},
	"sourceSize": {"w":125,"h":168},
	"pivot": {"x":0,"y":0}
},
"sheep/SHEEP_gameplay0019.png":
{
	"frame": {"x":1883,"y":765,"w":108,"h":159},
	"rotated": false,
	"trimmed": true,
	"spriteSourceSize": {"x":13,"y":7,"w":108,"h":159},
	"sourceSize": {"w":125,"h":168},
	"pivot": {"x":0,"y":0}
},
"sheep/SHEEP_gameplay0020.png":
{
	"frame": {"x":566,"y":1310,"w":108,"h":158},
	"rotated": false,
	"trimmed": true,
	"spriteSourceSize": {"x":13,"y":8,"w":108,"h":158},
	"sourceSize": {"w":125,"h":168},
	"pivot": {"x":0,"y":0}
},
"sheep/SHEEP_gameplay0021.png":
{
	"frame": {"x":786,"y":1296,"w":108,"h":155},
	"rotated": false,
	"trimmed": true,
	"spriteSourceSize": {"x":13,"y":11,"w":108,"h":155},
	"sourceSize": {"w":125,"h":168},
	"pivot": {"x":0,"y":0}
},
"sheep/SHEEP_gameplay0022.png":
{
	"frame": {"x":896,"y":1298,"w":108,"h":145},
	"rotated": false,
	"trimmed": true,
	"spriteSourceSize": {"x":13,"y":21,"w":108,"h":145},
	"sourceSize": {"w":125,"h":168},
	"pivot": {"x":0,"y":0}
},
"sheep/SHEEP_gameplay0023.png":
{
	"frame": {"x":1006,"y":1298,"w":115,"h":104},
	"rotated": false,
	"trimmed": true,
	"spriteSourceSize": {"x":10,"y":62,"w":115,"h":104},
	"sourceSize": {"w":125,"h":168},
	"pivot": {"x":0,"y":0}
},
"sheep/SHEEP_gameplay0024.png":
{
	"frame": {"x":1369,"y":1857,"w":118,"h":95},
	"rotated": false,
	"trimmed": true,
	"spriteSourceSize": {"x":7,"y":71,"w":118,"h":95},
	"sourceSize": {"w":125,"h":168},
	"pivot": {"x":0,"y":0}
},
"sheep/SHEEP_gameplay0025.png":
{
	"frame": {"x":852,"y":1559,"w":114,"h":100},
	"rotated": false,
	"trimmed": true,
	"spriteSourceSize": {"x":10,"y":66,"w":114,"h":100},
	"sourceSize": {"w":125,"h":168},
	"pivot": {"x":0,"y":0}
},
"sheep/SHEEP_gameplay0026.png":
{
	"frame": {"x":741,"y":1578,"w":109,"h":107},
	"rotated": false,
	"trimmed": true,
	"spriteSourceSize": {"x":13,"y":59,"w":109,"h":107},
	"sourceSize": {"w":125,"h":168},
	"pivot": {"x":0,"y":0}
},
"sheep/SHEEP_gameplay0027.png":
{
	"frame": {"x":741,"y":1468,"w":109,"h":108},
	"rotated": false,
	"trimmed": true,
	"spriteSourceSize": {"x":13,"y":58,"w":109,"h":108},
	"sourceSize": {"w":125,"h":168},
	"pivot": {"x":0,"y":0}
},
"sheep/SHEEP_gameplay0028.png":
{
	"frame": {"x":741,"y":1687,"w":109,"h":105},
	"rotated": false,
	"trimmed": true,
	"spriteSourceSize": {"x":13,"y":61,"w":109,"h":105},
	"sourceSize": {"w":125,"h":168},
	"pivot": {"x":0,"y":0}
},
"sheep/SHEEP_gameplay0029.png":
{
	"frame": {"x":852,"y":1661,"w":109,"h":104},
	"rotated": false,
	"trimmed": true,
	"spriteSourceSize": {"x":13,"y":62,"w":109,"h":104},
	"sourceSize": {"w":125,"h":168},
	"pivot": {"x":0,"y":0}
},
"sheep/SHEEP_gameplay0030.png":
{
	"frame": {"x":852,"y":1767,"w":109,"h":104},
	"rotated": false,
	"trimmed": true,
	"spriteSourceSize": {"x":13,"y":62,"w":109,"h":104},
	"sourceSize": {"w":125,"h":168},
	"pivot": {"x":0,"y":0}
},
"sheep/SHEEP_gameplay0031.png":
{
	"frame": {"x":852,"y":1873,"w":109,"h":104},
	"rotated": false,
	"trimmed": true,
	"spriteSourceSize": {"x":13,"y":62,"w":109,"h":104},
	"sourceSize": {"w":125,"h":168},
	"pivot": {"x":0,"y":0}
},
"sheep/SHEEP_gameplay0032.png":
{
	"frame": {"x":1912,"y":1756,"w":109,"h":104},
	"rotated": false,
	"trimmed": true,
	"spriteSourceSize": {"x":13,"y":62,"w":109,"h":104},
	"sourceSize": {"w":125,"h":168},
	"pivot": {"x":0,"y":0}
},
"sheep/SHEEP_gameplay0033.png":
{
	"frame": {"x":1527,"y":1919,"w":109,"h":104},
	"rotated": false,
	"trimmed": true,
	"spriteSourceSize": {"x":13,"y":62,"w":109,"h":104},
	"sourceSize": {"w":125,"h":168},
	"pivot": {"x":0,"y":0}
},
"sheep/SHEEP_gameplay0034.png":
{
	"frame": {"x":1779,"y":1906,"w":109,"h":104},
	"rotated": false,
	"trimmed": true,
	"spriteSourceSize": {"x":13,"y":62,"w":109,"h":104},
	"sourceSize": {"w":125,"h":168},
	"pivot": {"x":0,"y":0}
},
"sheep_side/SHEEP_HOMEPAGE0001.png":
{
	"frame": {"x":968,"y":1596,"w":139,"h":80},
	"rotated": false,
	"trimmed": true,
	"spriteSourceSize": {"x":2,"y":30,"w":139,"h":80},
	"sourceSize": {"w":143,"h":112},
	"pivot": {"x":0,"y":0}
},
"sheep_side/SHEEP_HOMEPAGE0002.png":
{
	"frame": {"x":963,"y":1943,"w":139,"h":80},
	"rotated": false,
	"trimmed": true,
	"spriteSourceSize": {"x":2,"y":30,"w":139,"h":80},
	"sourceSize": {"w":143,"h":112},
	"pivot": {"x":0,"y":0}
},
"sheep_side/SHEEP_HOMEPAGE0003.png":
{
	"frame": {"x":1104,"y":1936,"w":139,"h":80},
	"rotated": false,
	"trimmed": true,
	"spriteSourceSize": {"x":2,"y":30,"w":139,"h":80},
	"sourceSize": {"w":143,"h":112},
	"pivot": {"x":0,"y":0}
},
"sheep_side/SHEEP_HOMEPAGE0004.png":
{
	"frame": {"x":1104,"y":1936,"w":139,"h":80},
	"rotated": false,
	"trimmed": true,
	"spriteSourceSize": {"x":2,"y":30,"w":139,"h":80},
	"sourceSize": {"w":143,"h":112},
	"pivot": {"x":0,"y":0}
},
"sheep_side/SHEEP_HOMEPAGE0005.png":
{
	"frame": {"x":1104,"y":1936,"w":139,"h":80},
	"rotated": false,
	"trimmed": true,
	"spriteSourceSize": {"x":2,"y":30,"w":139,"h":80},
	"sourceSize": {"w":143,"h":112},
	"pivot": {"x":0,"y":0}
},
"sheep_side/SHEEP_HOMEPAGE0006.png":
{
	"frame": {"x":963,"y":1943,"w":139,"h":80},
	"rotated": false,
	"trimmed": true,
	"spriteSourceSize": {"x":2,"y":30,"w":139,"h":80},
	"sourceSize": {"w":143,"h":112},
	"pivot": {"x":0,"y":0}
},
"sheep_side/SHEEP_HOMEPAGE0007.png":
{
	"frame": {"x":968,"y":1596,"w":139,"h":80},
	"rotated": false,
	"trimmed": true,
	"spriteSourceSize": {"x":2,"y":30,"w":139,"h":80},
	"sourceSize": {"w":143,"h":112},
	"pivot": {"x":0,"y":0}
},
"sheep_side/SHEEP_HOMEPAGE0008.png":
{
	"frame": {"x":1251,"y":1611,"w":139,"h":80},
	"rotated": false,
	"trimmed": true,
	"spriteSourceSize": {"x":2,"y":30,"w":139,"h":80},
	"sourceSize": {"w":143,"h":112},
	"pivot": {"x":0,"y":0}
},
"sheep_side/SHEEP_HOMEPAGE0009.png":
{
	"frame": {"x":1126,"y":1444,"w":140,"h":78},
	"rotated": false,
	"trimmed": true,
	"spriteSourceSize": {"x":1,"y":32,"w":140,"h":78},
	"sourceSize": {"w":143,"h":112},
	"pivot": {"x":0,"y":0}
},
"sheep_side/SHEEP_HOMEPAGE0010.png":
{
	"frame": {"x":1109,"y":1611,"w":140,"h":77},
	"rotated": false,
	"trimmed": true,
	"spriteSourceSize": {"x":1,"y":33,"w":140,"h":77},
	"sourceSize": {"w":143,"h":112},
	"pivot": {"x":0,"y":0}
},
"sheep_side/SHEEP_HOMEPAGE0011.png":
{
	"frame": {"x":1109,"y":1611,"w":140,"h":77},
	"rotated": false,
	"trimmed": true,
	"spriteSourceSize": {"x":1,"y":33,"w":140,"h":77},
	"sourceSize": {"w":143,"h":112},
	"pivot": {"x":0,"y":0}
},
"sheep_side/SHEEP_HOMEPAGE0012.png":
{
	"frame": {"x":968,"y":1503,"w":136,"h":91},
	"rotated": false,
	"trimmed": true,
	"spriteSourceSize": {"x":3,"y":7,"w":136,"h":91},
	"sourceSize": {"w":143,"h":112},
	"pivot": {"x":0,"y":0}
},
"sheep_side/SHEEP_HOMEPAGE0013.png":
{
	"frame": {"x":963,"y":1678,"w":135,"h":87},
	"rotated": false,
	"trimmed": true,
	"spriteSourceSize": {"x":4,"y":6,"w":135,"h":87},
	"sourceSize": {"w":143,"h":112},
	"pivot": {"x":0,"y":0}
},
"sheep_side/SHEEP_HOMEPAGE0014.png":
{
	"frame": {"x":963,"y":1767,"w":135,"h":86},
	"rotated": false,
	"trimmed": true,
	"spriteSourceSize": {"x":4,"y":4,"w":135,"h":86},
	"sourceSize": {"w":143,"h":112},
	"pivot": {"x":0,"y":0}
},
"sheep_side/SHEEP_HOMEPAGE0015.png":
{
	"frame": {"x":1109,"y":1524,"w":135,"h":85},
	"rotated": false,
	"trimmed": true,
	"spriteSourceSize": {"x":4,"y":4,"w":135,"h":85},
	"sourceSize": {"w":143,"h":112},
	"pivot": {"x":0,"y":0}
},
"sheep_side/SHEEP_HOMEPAGE0016.png":
{
	"frame": {"x":963,"y":1855,"w":135,"h":86},
	"rotated": false,
	"trimmed": true,
	"spriteSourceSize": {"x":4,"y":3,"w":135,"h":86},
	"sourceSize": {"w":143,"h":112},
	"pivot": {"x":0,"y":0}
},
"sheep_side/SHEEP_HOMEPAGE0017.png":
{
	"frame": {"x":1246,"y":1524,"w":135,"h":85},
	"rotated": false,
	"trimmed": true,
	"spriteSourceSize": {"x":4,"y":5,"w":135,"h":85},
	"sourceSize": {"w":143,"h":112},
	"pivot": {"x":0,"y":0}
},
"sheep_side/SHEEP_HOMEPAGE0018.png":
{
	"frame": {"x":138,"y":1963,"w":135,"h":83},
	"rotated": false,
	"trimmed": true,
	"spriteSourceSize": {"x":4,"y":18,"w":135,"h":83},
	"sourceSize": {"w":143,"h":112},
	"pivot": {"x":0,"y":0}
},
"sheep_side/SHEEP_HOMEPAGE0019.png":
{
	"frame": {"x":995,"y":740,"w":141,"h":77},
	"rotated": false,
	"trimmed": true,
	"spriteSourceSize": {"x":2,"y":33,"w":141,"h":77},
	"sourceSize": {"w":143,"h":112},
	"pivot": {"x":0,"y":0}
},
"sheep_side/SHEEP_HOMEPAGE0020.png":
{
	"frame": {"x":1268,"y":1444,"w":140,"h":78},
	"rotated": false,
	"trimmed": true,
	"spriteSourceSize": {"x":2,"y":32,"w":140,"h":78},
	"sourceSize": {"w":143,"h":112},
	"pivot": {"x":0,"y":0}
},
"sheep_side/SHEEP_HOMEPAGE0021.png":
{
	"frame": {"x":1100,"y":1690,"w":140,"h":80},
	"rotated": false,
	"trimmed": true,
	"spriteSourceSize": {"x":2,"y":30,"w":140,"h":80},
	"sourceSize": {"w":143,"h":112},
	"pivot": {"x":0,"y":0}
},
"sheep_side/SHEEP_HOMEPAGE0022.png":
{
	"frame": {"x":1245,"y":1954,"w":139,"h":80},
	"rotated": false,
	"trimmed": true,
	"spriteSourceSize": {"x":2,"y":30,"w":139,"h":80},
	"sourceSize": {"w":143,"h":112},
	"pivot": {"x":0,"y":0}
},
"sheep_side/SHEEP_HOMEPAGE0023.png":
{
	"frame": {"x":1386,"y":1954,"w":139,"h":80},
	"rotated": false,
	"trimmed": true,
	"spriteSourceSize": {"x":2,"y":30,"w":139,"h":80},
	"sourceSize": {"w":143,"h":112},
	"pivot": {"x":0,"y":0}
},
"sheep_side/SHEEP_HOMEPAGE0024.png":
{
	"frame": {"x":1489,"y":1591,"w":139,"h":80},
	"rotated": false,
	"trimmed": true,
	"spriteSourceSize": {"x":2,"y":30,"w":139,"h":80},
	"sourceSize": {"w":143,"h":112},
	"pivot": {"x":0,"y":0}
},
"sheep_side/SHEEP_HOMEPAGE0025.png":
{
	"frame": {"x":1489,"y":1673,"w":139,"h":80},
	"rotated": false,
	"trimmed": true,
	"spriteSourceSize": {"x":2,"y":30,"w":139,"h":80},
	"sourceSize": {"w":143,"h":112},
	"pivot": {"x":0,"y":0}
},
"sheep_side/SHEEP_HOMEPAGE0026.png":
{
	"frame": {"x":1630,"y":1660,"w":139,"h":80},
	"rotated": false,
	"trimmed": true,
	"spriteSourceSize": {"x":2,"y":30,"w":139,"h":80},
	"sourceSize": {"w":143,"h":112},
	"pivot": {"x":0,"y":0}
},
"sheep_side/SHEEP_HOMEPAGE0027.png":
{
	"frame": {"x":1771,"y":1660,"w":139,"h":80},
	"rotated": false,
	"trimmed": true,
	"spriteSourceSize": {"x":2,"y":30,"w":139,"h":80},
	"sourceSize": {"w":143,"h":112},
	"pivot": {"x":0,"y":0}
},
"sheep_side/SHEEP_HOMEPAGE0028.png":
{
	"frame": {"x":1100,"y":1772,"w":140,"h":80},
	"rotated": false,
	"trimmed": true,
	"spriteSourceSize": {"x":1,"y":30,"w":140,"h":80},
	"sourceSize": {"w":143,"h":112},
	"pivot": {"x":0,"y":0}
},
"sheep_side/SHEEP_HOMEPAGE0029.png":
{
	"frame": {"x":1100,"y":1854,"w":140,"h":80},
	"rotated": false,
	"trimmed": true,
	"spriteSourceSize": {"x":1,"y":30,"w":140,"h":80},
	"sourceSize": {"w":143,"h":112},
	"pivot": {"x":0,"y":0}
},
"sheep_side/SHEEP_HOMEPAGE0030.png":
{
	"frame": {"x":1242,"y":1693,"w":140,"h":80},
	"rotated": false,
	"trimmed": true,
	"spriteSourceSize": {"x":1,"y":30,"w":140,"h":80},
	"sourceSize": {"w":143,"h":112},
	"pivot": {"x":0,"y":0}
},
"sheep_side/SHEEP_HOMEPAGE0031.png":
{
	"frame": {"x":1242,"y":1775,"w":140,"h":80},
	"rotated": false,
	"trimmed": true,
	"spriteSourceSize": {"x":1,"y":30,"w":140,"h":80},
	"sourceSize": {"w":143,"h":112},
	"pivot": {"x":0,"y":0}
},
"sheep_side/SHEEP_HOMEPAGE0032.png":
{
	"frame": {"x":1489,"y":1509,"w":140,"h":80},
	"rotated": false,
	"trimmed": true,
	"spriteSourceSize": {"x":1,"y":30,"w":140,"h":80},
	"sourceSize": {"w":143,"h":112},
	"pivot": {"x":0,"y":0}
},
"sheep_side/SHEEP_HOMEPAGE0033.png":
{
	"frame": {"x":1630,"y":1742,"w":139,"h":80},
	"rotated": false,
	"trimmed": true,
	"spriteSourceSize": {"x":2,"y":30,"w":139,"h":80},
	"sourceSize": {"w":143,"h":112},
	"pivot": {"x":0,"y":0}
},
"sheep_side/SHEEP_HOMEPAGE0034.png":
{
	"frame": {"x":1771,"y":1742,"w":139,"h":80},
	"rotated": false,
	"trimmed": true,
	"spriteSourceSize": {"x":2,"y":30,"w":139,"h":80},
	"sourceSize": {"w":143,"h":112},
	"pivot": {"x":0,"y":0}
},
"sheep_side/SHEEP_HOMEPAGE0035.png":
{
	"frame": {"x":1489,"y":1755,"w":139,"h":80},
	"rotated": false,
	"trimmed": true,
	"spriteSourceSize": {"x":2,"y":30,"w":139,"h":80},
	"sourceSize": {"w":143,"h":112},
	"pivot": {"x":0,"y":0}
},
"sheep_side/SHEEP_HOMEPAGE0036.png":
{
	"frame": {"x":1489,"y":1837,"w":139,"h":80},
	"rotated": false,
	"trimmed": true,
	"spriteSourceSize": {"x":2,"y":30,"w":139,"h":80},
	"sourceSize": {"w":143,"h":112},
	"pivot": {"x":0,"y":0}
},
"sheep_side/SHEEP_HOMEPAGE0037.png":
{
	"frame": {"x":1630,"y":1824,"w":139,"h":80},
	"rotated": false,
	"trimmed": true,
	"spriteSourceSize": {"x":2,"y":30,"w":139,"h":80},
	"sourceSize": {"w":143,"h":112},
	"pivot": {"x":0,"y":0}
},
"sheep_side/SHEEP_HOMEPAGE0038.png":
{
	"frame": {"x":1771,"y":1824,"w":139,"h":80},
	"rotated": false,
	"trimmed": true,
	"spriteSourceSize": {"x":2,"y":30,"w":139,"h":80},
	"sourceSize": {"w":143,"h":112},
	"pivot": {"x":0,"y":0}
},
"sheep_side/SHEEP_HOMEPAGE0039.png":
{
	"frame": {"x":1638,"y":1906,"w":139,"h":80},
	"rotated": false,
	"trimmed": true,
	"spriteSourceSize": {"x":2,"y":30,"w":139,"h":80},
	"sourceSize": {"w":143,"h":112},
	"pivot": {"x":0,"y":0}
}},
"meta": {
	"app": "http://www.codeandweb.com/texturepacker",
	"version": "1.0",
	"image": "duggee.png",
	"format": "RGBA8888",
	"size": {"w":2048,"h":2048},
	"scale": "1",
	"smartupdate": "$TexturePacker:SmartUpdate:4841e50196f94a3aa832bfee0303d604:73e613e5759eb381ee37ff2ef6c5ed69:adb454da353a8944b5a0755b14b9fb9b$"
}
}
